<svg width="55" height="55" viewBox="0 0 55 55" fill="none" xmlns="http://www.w3.org/2000/svg">
<path d="M40.7893 40.6552C38.1367 43.3343 34.7491 45.1667 31.0551 45.9206C27.3611 46.6745 23.5265 46.3161 20.0361 44.8906C16.5458 43.4651 13.5566 41.0367 11.4464 37.9123C9.33629 34.788 8.2 31.1081 8.18126 27.3379C8.16252 23.5678 9.26218 19.8767 11.3412 16.7316C13.4202 13.5864 16.3851 11.1283 19.8611 9.66826C23.3371 8.20817 27.1679 7.81163 30.8693 8.52877C34.5706 9.24591 37.9762 11.0445 40.6553 13.6972" stroke="#93B69A" stroke-width="2.58704" stroke-linecap="round"/>
<path d="M49.4375 28.2662C50.1519 28.2662 50.731 27.687 50.731 26.9727C50.731 26.2583 50.1519 25.6791 49.4375 25.6791L49.4375 28.2662ZM19.2485 26.058C18.7433 26.5631 18.7433 27.3822 19.2485 27.8873L27.4804 36.1192C27.9855 36.6244 28.8045 36.6244 29.3097 36.1192C29.8148 35.6141 29.8148 34.7951 29.3097 34.2899L21.9924 26.9727L29.3097 19.6554C29.8148 19.1503 29.8148 18.3312 29.3097 17.8261C28.8045 17.3209 27.9855 17.3209 27.4804 17.8261L19.2485 26.058ZM49.4375 25.6791L20.1631 25.6791L20.1631 28.2662L49.4375 28.2662L49.4375 25.6791Z" fill="#93B69A"/>
</svg>
