<svg width="51" height="50" viewBox="0 0 51 50" fill="none" xmlns="http://www.w3.org/2000/svg">
<path d="M12.6144 12.5621C15.0744 10.0776 18.2159 8.37828 21.6416 7.67914C25.0673 6.98 28.6235 7.31241 31.8603 8.63433C35.0971 9.95626 37.8693 12.2083 39.8262 15.1058C41.7831 18.0032 42.8368 21.4158 42.8542 24.9121C42.8716 28.4084 41.8518 31.8314 39.9238 34.7481C37.9958 37.6649 35.2462 39.9444 32.0227 41.2984C28.7991 42.6524 25.2465 43.0202 21.814 42.3551C18.3814 41.6901 15.2232 40.0221 12.7387 37.5621" stroke="#447C6C" stroke-width="2.5" stroke-linecap="round"/>
<path d="M4.59375 24.0039C3.90339 24.0039 3.34375 24.5636 3.34375 25.2539C3.34375 25.9443 3.90339 26.5039 4.59375 26.5039V24.0039ZM32.6258 26.1378C33.114 25.6496 33.114 24.8582 32.6258 24.37L24.6709 16.4151C24.1827 15.9269 23.3913 15.9269 22.9031 16.4151C22.4149 16.9032 22.4149 17.6947 22.9031 18.1828L29.9742 25.2539L22.9031 32.325C22.4149 32.8131 22.4149 33.6046 22.9031 34.0927C23.3913 34.5809 24.1827 34.5809 24.6709 34.0927L32.6258 26.1378ZM4.59375 26.5039H31.7419V24.0039H4.59375V26.5039Z" fill="#447C6C"/>
</svg>
