<svg width="32" height="28" viewBox="0 0 32 28" fill="none" xmlns="http://www.w3.org/2000/svg">
<path d="M4.19298 1H20.9517C22.0563 1 22.9517 1.89543 22.9517 3V25C22.9517 26.1046 22.0563 27 20.9517 27H3C1.89543 27 1 26.1046 1 25V9.5M4.19298 1L1 9.5M4.19298 1L6.20742 3.75301C6.89646 4.69468 6.63639 6.02382 5.64324 6.63634L1 9.5" stroke="#db7063" stroke-width="2"/>
<rect width="15.9731" height="6.2972" transform="matrix(0.874591 -0.484861 0.483232 0.875492 13.9883 19.1289)" fill="white"/>
<path d="M18.3893 21.1497C17.5671 21.1857 17.0574 20.2665 17.522 19.5857L18.1512 18.6638C18.2388 18.5354 18.3552 18.4291 18.4909 18.3535L26.1325 14.0974C26.615 13.8287 27.2233 14.0024 27.4911 14.4854L27.9753 15.3586C28.2432 15.8415 28.0691 16.4509 27.5866 16.7197L19.945 20.9758C19.8093 21.0514 19.6578 21.0943 19.5027 21.1011L18.3893 21.1497Z" fill="#db7063"/>
<path d="M17.3922 21.1933C16.981 21.2113 16.7262 20.7517 16.9585 20.4113L18.2178 18.5661C18.2617 18.5019 18.3198 18.4488 18.3877 18.411L21.3363 16.7687C21.5776 16.6343 21.8817 16.7212 22.0156 16.9627L22.5002 17.8366L22.9848 18.7104C23.1187 18.9519 23.0317 19.2566 22.7904 19.391L19.8418 21.0333C19.7739 21.0711 19.6982 21.0925 19.6206 21.0959L17.3922 21.1933Z" fill="#db7063"/>
<rect x="3.99219" y="11" width="11.9737" height="2" rx="1" fill="#db7063"/>
<rect x="3.99219" y="15" width="9.97805" height="2" rx="1" fill="#db7063"/>
<rect x="9.98047" y="5" width="7.98244" height="2" rx="1" fill="#db7063"/>
</svg>
