<svg width="34" height="34" viewBox="0 0 34 34" fill="none" xmlns="http://www.w3.org/2000/svg">
<circle cx="17" cy="17" r="15.75" stroke="#93b69a" stroke-width="2.5"/>
<path d="M24.1111 11.8H20.5556V10.85C20.5556 10.0941 20.2746 9.36922 19.7745 8.83475C19.2744 8.30027 18.5961 8 17.8889 8H16.1111C15.4039 8 14.7256 8.30027 14.2255 8.83475C13.7254 9.36922 13.4444 10.0941 13.4444 10.85V11.8H9.88889C9.65314 11.8 9.42705 11.9001 9.26035 12.0782C9.09365 12.2564 9 12.498 9 12.75C9 13.002 9.09365 13.2436 9.26035 13.4218C9.42705 13.5999 9.65314 13.7 9.88889 13.7H10.7778V24.15C10.7778 24.9059 11.0587 25.6308 11.5588 26.1653C12.0589 26.6997 12.7372 27 13.4444 27H20.5556C21.2628 27 21.9411 26.6997 22.4412 26.1653C22.9413 25.6308 23.2222 24.9059 23.2222 24.15V13.7H24.1111C24.3469 13.7 24.573 13.5999 24.7397 13.4218C24.9064 13.2436 25 13.002 25 12.75C25 12.498 24.9064 12.2564 24.7397 12.0782C24.573 11.9001 24.3469 11.8 24.1111 11.8ZM15.2222 10.85C15.2222 10.598 15.3159 10.3564 15.4826 10.1782C15.6493 10.0001 15.8754 9.9 16.1111 9.9H17.8889C18.1246 9.9 18.3507 10.0001 18.5174 10.1782C18.6841 10.3564 18.7778 10.598 18.7778 10.85V11.8H15.2222V10.85ZM21.4444 24.15C21.4444 24.402 21.3508 24.6436 21.1841 24.8218C21.0174 24.9999 20.7913 25.1 20.5556 25.1H13.4444C13.2087 25.1 12.9826 24.9999 12.8159 24.8218C12.6492 24.6436 12.5556 24.402 12.5556 24.15V13.7H21.4444V24.15Z" fill="#93b69a" stroke="#93b69a" stroke-width="0.7"/>
</svg>
