<svg width="34" height="35" viewBox="0 0 34 35" fill="none" xmlns="http://www.w3.org/2000/svg">
<circle cx="17" cy="17.5" r="15.75" stroke="#93B69A" stroke-width="2.5"/>
<path d="M11.8632 25.6016H8.77344V22.5118L19.4766 11.8087L22.5663 14.8984L11.8632 25.6016Z" fill="#93B69A" stroke="#93B69A"/>
<path d="M23.6164 8.50381L23.6164 8.50381L26.0008 10.8882C26.2038 11.0912 26.2038 11.423 26.0008 11.626L26.0008 11.6261L24.4856 13.1412L21.3634 10.019L22.8785 8.50381C23.0815 8.30081 23.4134 8.30081 23.6164 8.50381Z" fill="#93B69A" stroke="#93B69A"/>
</svg>
