<svg width="32" height="32" viewBox="0 0 32 32" fill="none" xmlns="http://www.w3.org/2000/svg">
<path d="M16.0054 31.5H0L2.5602 24.3979C0.890139 21.8941 0.0107464 19.0042 0.0107464 16C0.0107464 11.8598 1.6745 7.96743 4.69542 5.03987C7.71641 2.1123 11.7331 0.5 16.0054 0.5C20.2777 0.5 24.2943 2.1123 27.3153 5.03987C30.3363 7.96743 32 11.8598 32 16C32 20.1402 30.3362 24.0326 27.3153 26.9601C24.2943 29.8877 20.2777 31.5 16.0054 31.5ZM3.52032 29.0781H16.0054C23.4468 29.0781 29.5008 23.2113 29.5008 16C29.5008 8.78869 23.4468 2.92188 16.0054 2.92188C8.56394 2.92188 2.50991 8.78869 2.50991 16C2.50991 18.7135 3.35987 21.3161 4.96777 23.5262L5.33814 24.0353L3.52032 29.0781ZM14.7558 16C14.7558 16.6688 15.3152 17.2109 16.0054 17.2109C16.6955 17.2109 17.255 16.6688 17.255 16C17.255 15.3312 16.6955 14.7891 16.0054 14.7891C15.3152 14.7891 14.7558 15.3312 14.7558 16ZM19.7541 16C19.7541 16.6688 20.3136 17.2109 21.0037 17.2109C21.6938 17.2109 22.2533 16.6688 22.2533 16C22.2533 15.3312 21.6938 14.7891 21.0037 14.7891C20.3136 14.7891 19.7541 15.3312 19.7541 16ZM9.75747 16C9.75747 16.6688 10.3169 17.2109 11.0071 17.2109C11.6972 17.2109 12.2566 16.6688 12.2566 16C12.2566 15.3312 11.6972 14.7891 11.0071 14.7891C10.3169 14.7891 9.75747 15.3312 9.75747 16Z" fill="#93B69A"/>
</svg>
