<svg width="41" height="40" viewBox="0 0 41 40" fill="none" xmlns="http://www.w3.org/2000/svg">
<path d="M32.0731 26.5679C30.3163 24.8112 28.2254 23.5108 25.944 22.7235C28.3874 21.0406 29.9927 18.2242 29.9927 15.0394C29.9927 9.89787 25.8097 5.71484 20.6681 5.71484C15.5265 5.71484 11.3435 9.89787 11.3435 15.0394C11.3435 18.2242 12.9488 21.0406 15.3923 22.7235C13.1109 23.5108 11.0199 24.8112 9.26317 26.5679C6.2168 29.6144 4.53906 33.6647 4.53906 37.9729H7.05922C7.05922 30.4689 13.1641 24.364 20.6681 24.364C28.1721 24.364 34.277 30.4689 34.277 37.9729H36.7971C36.7971 33.6647 35.1194 29.6144 32.0731 26.5679ZM20.6681 21.8439C16.9161 21.8439 13.8637 18.7915 13.8637 15.0394C13.8637 11.2874 16.9161 8.235 20.6681 8.235C24.42 8.235 27.4725 11.2874 27.4725 15.0394C27.4725 18.7915 24.42 21.8439 20.6681 21.8439Z" fill="#447C6C" stroke="#447C6C" stroke-width="0.6"/>
<rect x="2.16797" y="1.5" width="37" height="37" rx="2.5" stroke="#447C6C" stroke-width="3"/>
</svg>
